[
    {
        "pk":1,
        "model":"activity_core.project",
        "fields": {
            "name": "My Fixture Project",
            "client": 1
        }
    },
    {
        "pk":2,
        "model":"activity_core.project",
        "fields": {
            "name": "Project To Delete",
            "client": 1
        }
    }
]
